{
  "end_with_newline": true,
  "eol": "\n",
  "indent_level": 0,
  "indent_char": " ",
  "indent_size": 2,
  "indent_with_tabs": false,
  "max_preserve_newlines": 2,
  "preserve_newlines": true,
  "wrap_line_length": 120,
  "html": {
    "indent_handlebars": false,
    "indent_inner_html": true,
    "indent_scripts": "normal",
    "unformatted": []
  },
  "css": {
    "newline_between_rules": true,
    "selector_separator": " ",
    "selector_separator_newline": true
  },
  "js": {
    "brace_style": "end-expand",
    "break_chained_methods": false,
    "comma_first": false,
    "e4x": true,
    "jslint_happy": false,
    "keep_array_indentation": false,
    "keep_function_indentation": false,
    "operator_position": "before-newline",
    "space_after_anon_function": false,
    "space_before_conditional": true,
    "space_in_empty_paren": false,
    "space_in_paren": false,
    "unescape_strings": false
  },
  "json": {
    "brace_style": "end-expand",
    "keep_array_indentation": false,
    "unescape_strings": false
  }
}
